…
``` r
fli_airline_delay <- fli_airline %>% group_by(name, dep_hour) %>%
  summarize(avg_delay = mean(arr_delay))
```

    ## `summarise()` has grouped output by 'name'. You can override using the `.groups` argument.

``` r
sig_delay_airline <- fli_airline_delay %>% filter(avg_delay > mean(fli_airline_delay$avg_delay, na.rm = TRUE))
sig_delay_airline
```

    ## # A tibble: 52 x 3
    ## # Groups:   name [16]
    ##    name                        dep_hour avg_delay
    ##    <chr>                          <dbl>     <dbl>
    ##  1 AirTran Airways Corporation        0      277.
    ##  2 AirTran Airways Corporation        1      382.
    ##  3 AirTran Airways Corporation        2      331 
    ##  4 AirTran Airways Corporation       22      164.
    ##  5 AirTran Airways Corporation       23      190.
    ##  6 Alaska Airlines Inc.              10      198 
    ##  7 Alaska Airlines Inc.              21      147.
    ##  8 Alaska Airlines Inc.              22      188 
    ##  9 American Airlines Inc.             0      205.
    ## 10 American Airlines Inc.             1      219 
    ## # … with 42 more rows
…
``` r
sig_delay_airport <- fli_airport %>% filter(avg_arr_delay > mean(fli_airport$avg_arr_delay, na.rm = TRUE))
sig_delay_airport 
```

    ## # A tibble: 23 x 3
    ## # Groups:   dep_hour [12]
    ##    dep_hour tzone               avg_arr_delay
    ##       <dbl> <chr>                       <dbl>
    ##  1        0 America/Chicago              219.
    ##  2        0 America/Denver               233 
    ##  3        0 America/Los_Angeles          188.
    ##  4        0 America/New_York             166.
    ##  5        0 America/Phoenix              224 
    ##  6        1 America/Chicago              284.
    ##  7        1 America/Denver               272.
    ##  8        2 America/Chicago              306.
    ##  9        2 America/New_York             267.
    ## 10        2 <NA>                         141.
    ## # … with 13 more rows
…
``` r
sig_delay_visib <- fli_weather %>% filter(avg_arr_delay > mean(fli_weather$avg_arr_delay, na.rm = TRUE))
sig_delay_visib
```

    ## # A tibble: 63 x 3
    ## # Groups:   visib [20]
    ##    visib dep_hour avg_arr_delay
    ##    <dbl>    <dbl>         <dbl>
    ##  1  0           0          123.
    ##  2  0           1          267 
    ##  3  0.06        0          147.
    ##  4  0.06        1          242.
    ##  5  0.06        2          322 
    ##  6  0.06       22          110.
    ##  7  0.06       23          147.
    ##  8  0.12        0          161.
    ##  9  0.12        1          201.
    ## 10  0.12        2          322 
    ## # … with 53 more rows
…
